{
  "name": "orguni_backend",
  "version": "1.0.0",
  "description": "Trabajo practico back end de Taller de Programacion 2",
  "sampleUrl": false,
  "defaultVersion": "0.0.0",
  "apidoc": "0.3.0",
  "generator": {
    "name": "apidoc",
    "time": "2019-06-27T21:59:38.992Z",
    "url": "http://apidocjs.com",
    "version": "0.17.7"
  }
}
